{
  "$schema": "../../node_modules/ng-packagr/ng-package.schema.json",
  "dest": "../../dist/ngx-reports",
  "lib": {
    "entryFile": "src/public-api.ts"
  },
  "allowedNonPeerDependencies": [
    "@universis/ngx-signer",
    "blob-util",
    "lodash",
    "ngx-dropzone",
    "ngx-extended-pdf-viewer",
    "pdf-lib",
    "tslib"
  ]
}